<?xml version="1.0" encoding="UTF-8" standalone="no"?>
<svg
   xmlns:dc="http://purl.org/dc/elements/1.1/"
   xmlns:cc="http://creativecommons.org/ns#"
   xmlns:rdf="http://www.w3.org/1999/02/22-rdf-syntax-ns#"
   xmlns:svg="http://www.w3.org/2000/svg"
   xmlns="http://www.w3.org/2000/svg"
   xmlns:xlink="http://www.w3.org/1999/xlink"
   xmlns:sodipodi="http://sodipodi.sourceforge.net/DTD/sodipodi-0.dtd"
   xmlns:inkscape="http://www.inkscape.org/namespaces/inkscape"
   sodipodi:docname="elements-f14.svg"
   inkscape:version="1.0beta1 (a4ee55bc41, 2019-11-15)"
   sodipodi:version="0.32"
   id="svg2291"
   viewBox="0 0 300 100"
   height="100"
   width="300"
   version="1.1">
  <defs
     id="defs3">
    <linearGradient
       y2="0.4649123"
       x2="-0.1969697"
       y1="0.4649123"
       x1="0.9848485"
       id="linearGradient3169"
       xlink:href="#linearGradient3164"
       inkscape:collect="always" />
    <linearGradient
       y2="0.67543858"
       x2="1.2272727"
       y1="0.68181819"
       x1="-0.0064935065"
       id="linearGradient3170"
       xlink:href="#linearGradient3164"
       inkscape:collect="always" />
    <linearGradient
       y2="-0.38"
       x2="0.48979592"
       y1="1.0599999"
       x1="0.48979592"
       id="linearGradient3168"
       xlink:href="#linearGradient3164"
       inkscape:collect="always" />
    <linearGradient
       id="linearGradient3164">
      <stop
         id="stop3165"
         offset="0.0000000"
         style="stop-color:#000000;stop-opacity:1.0000000;" />
      <stop
         id="stop3167"
         offset="1.0000000"
         style="stop-color:#ffffff;stop-opacity:1.0000000;" />
    </linearGradient>
    <linearGradient
       y2="1.2200714"
       x2="0.48798475"
       y1="0.02"
       x1="0.48979592"
       id="linearGradient3163"
       xlink:href="#linearGradient3164"
       inkscape:collect="always" />
    <linearGradient
       gradientUnits="userSpaceOnUse"
       gradientTransform="scale(1.073093,0.931885)"
       y2="2874.8171"
       x2="-14.462526"
       y1="2874.8171"
       x1="114.0282"
       id="linearGradient2322"
       xlink:href="#linearGradient3164"
       inkscape:collect="always" />
    <linearGradient
       gradientUnits="userSpaceOnUse"
       gradientTransform="scale(1.073093,0.931885)"
       y2="2897.7063"
       x2="316.20587"
       y1="2898.3999"
       x1="182.06721"
       id="linearGradient2324"
       xlink:href="#linearGradient3164"
       inkscape:collect="always" />
    <linearGradient
       gradientUnits="userSpaceOnUse"
       gradientTransform="scale(2.804661,0.356549)"
       y2="7340.208"
       x2="55.983917"
       y1="7496.9795"
       x1="55.983917"
       id="linearGradient2326"
       xlink:href="#linearGradient3164"
       inkscape:collect="always" />
    <linearGradient
       gradientUnits="userSpaceOnUse"
       gradientTransform="scale(2.804661,0.356549)"
       y2="7689.6982"
       x2="55.786736"
       y1="7559.0469"
       x1="55.983917"
       id="linearGradient2328"
       xlink:href="#linearGradient3164"
       inkscape:collect="always" />
    <linearGradient
       y2="7689.6982"
       x2="55.786736"
       y1="7559.0469"
       x1="55.983917"
       gradientTransform="matrix(2.7527683,0,0,0.34995202,-7.1905525,-2583.0408)"
       gradientUnits="userSpaceOnUse"
       id="linearGradient2331"
       xlink:href="#linearGradient3164"
       inkscape:collect="always" />
    <linearGradient
       y2="7340.208"
       x2="55.983917"
       y1="7496.9795"
       x1="55.983917"
       gradientTransform="matrix(2.7527683,0,0,0.34995202,-7.1905525,-2583.0408)"
       gradientUnits="userSpaceOnUse"
       id="linearGradient2334"
       xlink:href="#linearGradient3164"
       inkscape:collect="always" />
    <linearGradient
       y2="2897.7063"
       x2="316.20587"
       y1="2898.3999"
       x1="182.06721"
       gradientTransform="matrix(1.0532383,0,0,0.91464297,-7.1905525,-2583.0408)"
       gradientUnits="userSpaceOnUse"
       id="linearGradient2337"
       xlink:href="#linearGradient3164"
       inkscape:collect="always" />
    <linearGradient
       y2="2874.8171"
       x2="-14.462526"
       y1="2874.8171"
       x1="114.0282"
       gradientTransform="matrix(1.0532383,0,0,0.91464297,-7.1905525,-2583.0408)"
       gradientUnits="userSpaceOnUse"
       id="linearGradient2340"
       xlink:href="#linearGradient3164"
       inkscape:collect="always" />
  </defs>
  <sodipodi:namedview
     inkscape:window-maximized="1"
     inkscape:window-y="0"
     inkscape:window-x="1920"
     inkscape:window-height="1163"
     inkscape:window-width="1920"
     inkscape:guide-bbox="true"
     showguides="true"
     units="px"
     showgrid="false"
     inkscape:document-rotation="0"
     inkscape:current-layer="layer1"
     inkscape:document-units="px"
     inkscape:cy="50"
     inkscape:cx="160"
     inkscape:zoom="1.4"
     inkscape:pageshadow="2"
     inkscape:pageopacity="0.0"
     borderopacity="1.0"
     bordercolor="#666666"
     pagecolor="#ffffff"
     id="base"
     inkscape:lockguides="true" />
  <metadata
     id="metadata4">
    <rdf:RDF>
      <cc:Work
         rdf:about="">
        <dc:format>image/svg+xml</dc:format>
        <dc:type
           rdf:resource="http://purl.org/dc/dcmitype/StillImage" />
        <dc:title />
      </cc:Work>
    </rdf:RDF>
  </metadata>
  <g
     id="layer1"
     inkscape:groupmode="layer"
     inkscape:label="Layer 1">
    <rect
       y="0.24430014"
       x="0.24454901"
       height="99.125145"
       width="299.51089"
       id="rect3127"
       style="fill:none;fill-rule:evenodd;stroke:#000000;stroke-width:0.489098" />
    <rect
       y="38.041786"
       x="114.45061"
       height="23.530624"
       width="71.098793"
       id="rect3129"
       style="fill:#000000;fill-opacity:1;fill-rule:evenodd;stroke:#000000;stroke-width:1.22687;stroke-miterlimit:4" />
    <path
       sodipodi:nodetypes="cccc"
       d="M 0.37756421,0.40466689 114.398,38.013008 V 61.748272 L 0.37756421,99.356614"
       style="fill:url(#linearGradient2340);fill-opacity:1;fill-rule:evenodd;stroke:#000000;stroke-width:0.490749;stroke-linecap:butt;stroke-linejoin:miter;stroke-miterlimit:4;stroke-opacity:1"
       id="path3130"
       inkscape:connector-curvature="0" />
    <path
       sodipodi:nodetypes="ccccc"
       d="M 185.55863,61.748272 V 38.013008 L 299.57906,0.40466689 V 99.356614 Z"
       style="fill:url(#linearGradient2337);fill-opacity:1;fill-rule:evenodd;stroke:#000000;stroke-width:0.490749;stroke-linecap:butt;stroke-linejoin:miter;stroke-miterlimit:4;stroke-opacity:1"
       id="path3133"
       inkscape:connector-curvature="0" />
    <path
       sodipodi:nodetypes="ccccc"
       d="M 299.57906,0.40466689 H 0.37756421 L 114.398,38.013008 h 71.16063 z"
       style="fill:url(#linearGradient2334);fill-opacity:1;fill-rule:evenodd;stroke:#000000;stroke-width:0.490749;stroke-linecap:butt;stroke-linejoin:miter;stroke-miterlimit:4;stroke-opacity:1"
       id="path3145"
       inkscape:connector-curvature="0" />
    <path
       sodipodi:nodetypes="ccccc"
       d="M 299.57906,99.356614 H 0.37756421 L 114.398,61.748272 h 71.16063 z"
       style="fill:url(#linearGradient2331);fill-opacity:1;fill-rule:evenodd;stroke:#000000;stroke-width:0.490749;stroke-linecap:butt;stroke-linejoin:miter;stroke-miterlimit:4;stroke-opacity:1"
       id="path3147"
       inkscape:connector-curvature="0" />
  </g>
</svg>
